module social-network

go 1.18

require github.com/mattn/go-sqlite3 v1.14.14

require (
	github.com/go-gorp/gorp/v3 v3.0.2 // indirect
	github.com/rubenv/sql-migrate v1.2.0
	golang.org/x/crypto v0.0.0-20220525230936-793ad666bf5e
)

require (
	github.com/gofrs/uuid v4.4.0+incompatible
	github.com/gorilla/websocket v1.5.0
)
